<?xml version="1.0" encoding="utf-8"?>
<!-- Generator: Adobe Illustrator 24.3.0, SVG Export Plug-In . SVG Version: 6.00 Build 0)  -->
<svg version="1.1" id="Ebene_1" xmlns="http://www.w3.org/2000/svg" xmlns:xlink="http://www.w3.org/1999/xlink" x="0px" y="0px"
	 width="1004.6px" height="1089.9px" viewBox="0 0 1004.6 1089.9" style="enable-background:new 0 0 1004.6 1089.9;"
	 xml:space="preserve">
<style type="text/css">
	.st0{fill:#FF8282;}
</style>
<circle id="Ellipse_1_1_" class="st0" cx="502.3" cy="546.4" r="502.3"/>
</svg>
