<?xml version="1.0" encoding="UTF-8"?>
<glyph name="Eng" format="2">
	<advance width="800"/>
	<unicode hex="014A"/>
	<outline>
		<contour>
			<point x="547" y="-212" type="line"/>
			<point x="672" y="-212"/>
			<point x="750" y="-154"/>
			<point x="750" y="-25" type="curve" smooth="yes"/>
			<point x="750" y="850" type="line"/>
			<point x="650" y="850" type="line"/>
			<point x="650" y="100" type="line"/>
			<point x="561" y="100" type="line"/>
			<point x="311" y="850" type="line"/>
			<point x="50" y="850" type="line"/>
			<point x="50" y="0" type="line"/>
			<point x="150" y="0" type="line"/>
			<point x="150" y="750" type="line"/>
			<point x="239" y="750" type="line"/>
			<point x="489" y="0" type="line"/>
			<point x="650" y="0" type="line"/>
			<point x="650" y="-50" type="line" smooth="yes"/>
			<point x="650" y="-97"/>
			<point x="622" y="-137"/>
			<point x="547" y="-137" type="curve"/>
		</contour>
	</outline>
</glyph>
