<?xml version="1.0" encoding="UTF-8"?>
<glyph name="onehalf" format="2">
	<advance width="836"/>
	<unicode hex="00BD"/>
	<outline>
		<component base="one.numr"/>
		<component base="fraction" xOffset="377"/>
		<component base="two.dnom" xOffset="478"/>
	</outline>
	<lib>
		<dict>
			<key>com.schriftgestaltung.Glyphs.leftMetricsKey</key>
			<string>one.numr</string>
			<key>com.schriftgestaltung.Glyphs.rightMetricsKey</key>
			<string>one.numr</string>
		</dict>
	</lib>
</glyph>
