<?xml version="1.0" encoding="UTF-8"?>
<glyph name="Rcommaaccent" format="2">
	<advance width="701"/>
	<unicode hex="0156"/>
	<outline>
		<component base="R"/>
		<component base="commaaccentcomb" xOffset="213" yOffset="-25"/>
	</outline>
</glyph>
