<?xml version="1.0" encoding="UTF-8"?>
<glyph name="uacute" format="2">
	<advance width="595"/>
	<unicode hex="00FA"/>
	<outline>
		<component base="u"/>
		<component base="acutecomb" xOffset="73" yOffset="-175"/>
	</outline>
</glyph>
