<svg xmlns="http://www.w3.org/2000/svg" width="390" height="390" viewBox="0 0 390 390">
  <g id="Group_31" data-name="Group 31" transform="translate(-1498 -596)">
    <circle id="Ellipse_2" data-name="Ellipse 2" cx="195" cy="195" r="195" transform="translate(1498 596)" fill="#ff372f"/>
    <path id="Path_16" data-name="Path 16" d="M184.465,48h6.2l-15.3-37.3h-5.85L154.365,48h5.9l4.2-10.55h15.75Zm-12.05-30,5.85,14.55h-11.85l5.8-14.55Zm48.45,17.45c0-7.5-4.6-12.85-11.35-12.85a10.2,10.2,0,0,0-9.3,5.7h-.2V23.4h-5.3V60.7h5.5V43.45h.2a9.985,9.985,0,0,0,9,5.35C216.365,48.8,220.865,42.9,220.865,35.45Zm-20.65.25c0-4.9,3.05-8.55,7.55-8.55,4.6,0,7.45,3.65,7.45,8.55,0,5.15-2.85,8.45-7.45,8.45C203.365,44.15,200.215,40.65,200.215,35.7Zm52.7-.25c0-7.5-4.6-12.85-11.35-12.85a10.2,10.2,0,0,0-9.3,5.7h-.2V23.4h-5.3V60.7h5.5V43.45h.2a9.985,9.985,0,0,0,9,5.35C248.415,48.8,252.915,42.9,252.915,35.45Zm-20.65.25c0-4.9,3.05-8.55,7.55-8.55,4.6,0,7.45,3.65,7.45,8.55,0,5.15-2.85,8.45-7.45,8.45C235.415,44.15,232.265,40.65,232.265,35.7ZM264.315,48V10.7h-5.5V48Zm15.55,12.7,5-12.7,10.5-24.6h-5.75l-7.15,18.2h-.25l-7.45-18.2h-5.95L279.465,48l-5.55,12.7Z" transform="translate(1468.635 755.3)" fill="#fff"/>
  </g>
</svg>
