<?xml version="1.0" encoding="utf-8"?>
<!-- Generator: Adobe Illustrator 24.3.0, SVG Export Plug-In . SVG Version: 6.00 Build 0)  -->
<svg version="1.1" id="Layer_1" xmlns="http://www.w3.org/2000/svg" xmlns:xlink="http://www.w3.org/1999/xlink" x="0px" y="0px"
	 viewBox="0 0 333.4 98.6" style="enable-background:new 0 0 333.4 98.6;" xml:space="preserve">
<style type="text/css">
	.st0{fill:#010202;}
</style>
<g>
	<path class="st0" d="M17.1,80.8v-30L2.5,53.9V42.8l14.6-2.8V15.9L30.4,14v23.4l17.3-3.3v10.2l-17.3,3.7v27.8c0,6.2,2.9,8.2,7.8,6.8
		c3.6-1,7.2-3.7,9.2-6.7l2.9,8.4c-3.6,4.6-9.6,8.1-16,10.1C23.1,97.7,17.1,92.4,17.1,80.8"/>
	<path class="st0" d="M102.4,41.6v30.2l-9.7,3V46c0-8-2.3-12.6-9.7-11.1c-7.6,1.6-12.9,11.1-12.9,21.4v25.2L58.9,85V4.5L70.1,3v36.3
		l0.5-0.1c3.2-7.1,8.8-12.9,16-14.3C96.9,23,102.4,29.9,102.4,41.6"/>
	<path class="st0" d="M132.4,64.1c-11.5,3.5-20.4-3.6-20.4-18.3c0-15.1,8.3-27.1,19.8-29.3c10.2-1.9,16.9,4.9,16.9,17.8
		c0,1-0.1,1.9-0.2,3l-27.7,7c0.5,9.2,5.3,13.3,11.8,11.4c4.9-1.4,8.5-5.4,9.5-12.2l7.3,0C147.4,53.6,141.4,61.3,132.4,64.1
		 M121.1,37.7l19.6-4.6c0-6.7-4-9.5-9.2-8.4C126.4,25.8,122.3,29.9,121.1,37.7"/>
</g>
<polygon class="st0" points="265.1,27.9 265,27.9 265,64.6 259.9,66.9 259.9,17.8 265.5,16.3 282.2,46 282.4,45.9 282.4,11.9 
	286.6,10.8 286.6,54.6 281.9,56.8 "/>
<g>
	<path class="st0" d="M300.3,49.3c-5,2.3-8.9-1.8-8.9-10.7c0-9.1,3.6-16.5,8.6-18.1c4.5-1.5,7.5,2.5,7.5,10.4c0,0.6,0,1.2-0.1,1.8
		l-12.2,4.8c0.2,5.6,2.3,7.9,5.2,6.7c2.1-0.9,3.8-3.4,4.2-7.6l3.3-0.2C306.9,42.7,304.3,47.4,300.3,49.3 M295.3,33.6l8.6-3.3
		c0-4.1-1.8-5.7-4-4.9C297.7,26.3,295.9,28.9,295.3,33.6"/>
</g>
<polygon class="st0" points="326.8,12.6 324,30.9 323.8,31 320.8,14.6 318.3,15.4 315.3,34.6 315.2,34.6 311.9,17.5 308.4,18.6 
	313.6,42.3 316.5,41 319.5,23.8 319.6,23.7 322.5,38.2 325,37.1 329.5,11.7 "/>
<g>
	<path class="st0" d="M189,41.8v24.1l-6.2,2.3V45.4c0-6.4-1.4-10.1-6.1-8.8c-4.9,1.3-8.1,9.2-8.1,16.8v20l-6.9,2.5V34.3l6.7-1.7v8
		l0.2-0.1c2.1-5.9,5.7-10.7,10.4-11.9C185.5,27,189,32.5,189,41.8"/>
	<path class="st0" d="M208.5,59.9c-7.6,2.8-13.3-3-13.3-14.9c0-12.2,5.4-21.9,12.9-23.8c6.8-1.7,11.2,3.8,11.2,14.3
		c0,0.8,0,1.6-0.1,2.5l-18.3,5.7c0.3,7.5,3.5,10.7,7.8,9.2c3.2-1.1,5.7-4.4,6.3-9.9l4.9,0C218.4,51.5,214.4,57.7,208.5,59.9
		 M201.1,38.6l12.9-3.8c0-5.5-2.6-7.7-6.1-6.8C204.5,28.9,201.8,32.3,201.1,38.6"/>
</g>
<polygon class="st0" points="237.5,26.8 237.3,26.8 232.7,49.8 228.5,51.4 220.7,19.3 225.9,17.9 230.8,41.2 231,41.1 235.5,15.5 
	239.3,14.5 243.9,36.8 244.1,36.7 248.3,12.2 252.5,11.2 245.7,45.1 241.8,46.5 "/>
</svg>
