<?xml version="1.0" encoding="UTF-8"?>
<glyph name="leftArrow" format="2">
	<advance width="1400"/>
	<unicode hex="2190"/>
	<outline>
		<contour>
			<point x="850" y="-1" type="line"/>
			<point x="1276" y="425" type="line"/>
			<point x="850" y="851" type="line"/>
			<point x="778" y="779" type="line"/>
			<point x="1083" y="475" type="line"/>
			<point x="123" y="475" type="line"/>
			<point x="123" y="375" type="line"/>
			<point x="1083" y="375" type="line"/>
			<point x="778" y="71" type="line"/>
		</contour>
	</outline>
</glyph>
