<?xml version="1.0" encoding="UTF-8"?>
<glyph name="less" format="2">
	<advance width="801"/>
	<unicode hex="003C"/>
	<outline>
		<contour>
			<point x="626" y="124" type="line"/>
			<point x="678" y="211" type="line"/>
			<point x="677" y="211" type="line"/>
			<point x="323" y="425" type="line"/>
			<point x="677" y="639" type="line"/>
			<point x="678" y="639" type="line"/>
			<point x="626" y="726" type="line"/>
			<point x="124" y="425" type="line"/>
		</contour>
	</outline>
</glyph>
