<?xml version="1.0" encoding="UTF-8"?>
<glyph name="Ohungarumlaut" format="2">
	<advance width="708"/>
	<unicode hex="0150"/>
	<outline>
		<component base="O"/>
		<component base="hungarumlautcomb" xOffset="54" yOffset="25"/>
	</outline>
</glyph>
