<?xml version="1.0" encoding="UTF-8"?>
<glyph name="Scaron" format="2">
	<advance width="613"/>
	<unicode hex="0160"/>
	<outline>
		<component base="S"/>
		<component base="caroncomb" xOffset="26" yOffset="25"/>
	</outline>
</glyph>
